@startuml
class fsiap2dkg3.controller.AdicionarProcessadorController
class fsiap2dkg3.controller.EditarProcessadorController
class fsiap2dkg3.controller.FimRunController
class fsiap2dkg3.controller.InicioRunController
class fsiap2dkg3.controller.RemoverProcessadorController
class fsiap2dkg3.dicionario.Dicionario
class fsiap2dkg3.dicionario.Idioma
class fsiap2dkg3.exception.ExportarException
class fsiap2dkg3.exception.ExtensaoException
class fsiap2dkg3.exception.ImportarException
class fsiap2dkg3.exportar.relatorio.ExportarRelatorio
class fsiap2dkg3.exportar.relatorio.ExportarRelatorioLOG
class fsiap2dkg3.exportar.sistema.ExportarSistema
class fsiap2dkg3.exportar.sistema.ExportarSistemaBAK
class fsiap2dkg3.exportar.sistema.ExportarSistemaTXT
class fsiap2dkg3.hclc.RegistoDissipadores
class fsiap2dkg3.hclc.RegistoPastasTermicas
class fsiap2dkg3.hclc.RegistoProcessadores
class fsiap2dkg3.importar.sistema.ImportarSistema
class fsiap2dkg3.importar.sistema.ImportarSistemaBAK
class fsiap2dkg3.importar.sistema.ImportarSistemaData
class fsiap2dkg3.model.Calculo
class fsiap2dkg3.model.Dissipador
class fsiap2dkg3.model.PastaTermica
class fsiap2dkg3.model.Processador
class fsiap2dkg3.model.Sistema
interface fsiap2dkg3.exportar.relatorio.ExportarRelatorioType
interface fsiap2dkg3.exportar.sistema.ExportarSistemaType
interface fsiap2dkg3.importar.sistema.ImportarSistemaType
fsiap2dkg3.controller.AdicionarProcessadorController ..> fsiap2dkg3.hclc.RegistoProcessadores
fsiap2dkg3.controller.AdicionarProcessadorController ..> fsiap2dkg3.model.Processador
fsiap2dkg3.controller.EditarProcessadorController ..> fsiap2dkg3.model.Processador
fsiap2dkg3.controller.RemoverProcessadorController ..> fsiap2dkg3.model.Processador
fsiap2dkg3.exportar.relatorio.ExportarRelatorio ..> fsiap2dkg3.exception.ExportarException
fsiap2dkg3.exportar.relatorio.ExportarRelatorioLOG ..> fsiap2dkg3.exception.ExportarException
fsiap2dkg3.exportar.relatorio.ExportarRelatorioLOG --|> fsiap2dkg3.exportar.relatorio.ExportarRelatorioType
fsiap2dkg3.exportar.sistema.ExportarSistema ..> fsiap2dkg3.exception.ExportarException
fsiap2dkg3.exportar.sistema.ExportarSistema ..> fsiap2dkg3.exception.ExtensaoException
fsiap2dkg3.exportar.sistema.ExportarSistema ..> fsiap2dkg3.model.Sistema
fsiap2dkg3.exportar.sistema.ExportarSistemaBAK ..> fsiap2dkg3.exception.ExportarException
fsiap2dkg3.exportar.sistema.ExportarSistemaBAK ..> fsiap2dkg3.exportar.relatorio.ExportarRelatorio
fsiap2dkg3.exportar.sistema.ExportarSistemaBAK ..> fsiap2dkg3.model.Sistema
fsiap2dkg3.exportar.sistema.ExportarSistemaBAK --|> fsiap2dkg3.exportar.sistema.ExportarSistemaType
fsiap2dkg3.exportar.sistema.ExportarSistemaTXT ..> fsiap2dkg3.exception.ExportarException
fsiap2dkg3.exportar.sistema.ExportarSistemaTXT ..> fsiap2dkg3.exportar.relatorio.ExportarRelatorio
fsiap2dkg3.exportar.sistema.ExportarSistemaTXT ..> fsiap2dkg3.model.Sistema
fsiap2dkg3.exportar.sistema.ExportarSistemaTXT --|> fsiap2dkg3.exportar.sistema.ExportarSistemaType
fsiap2dkg3.hclc.RegistoDissipadores ..> fsiap2dkg3.model.Dissipador
fsiap2dkg3.hclc.RegistoPastasTermicas ..> fsiap2dkg3.model.PastaTermica
fsiap2dkg3.hclc.RegistoProcessadores ..> fsiap2dkg3.model.Processador
fsiap2dkg3.importar.sistema.ImportarSistema ..> fsiap2dkg3.exception.ExtensaoException
fsiap2dkg3.importar.sistema.ImportarSistema ..> fsiap2dkg3.exception.ImportarException
fsiap2dkg3.importar.sistema.ImportarSistemaBAK ..> fsiap2dkg3.exception.ImportarException
fsiap2dkg3.importar.sistema.ImportarSistemaBAK ..> fsiap2dkg3.exportar.relatorio.ExportarRelatorio
fsiap2dkg3.importar.sistema.ImportarSistemaBAK ..> fsiap2dkg3.model.Sistema
fsiap2dkg3.importar.sistema.ImportarSistemaBAK --|> fsiap2dkg3.importar.sistema.ImportarSistemaType
fsiap2dkg3.importar.sistema.ImportarSistemaData ..> fsiap2dkg3.model.Sistema
fsiap2dkg3.exportar.relatorio.ExportarRelatorioType ..> fsiap2dkg3.exception.ExportarException
fsiap2dkg3.exportar.sistema.ExportarSistemaType ..> fsiap2dkg3.exception.ExportarException
fsiap2dkg3.exportar.sistema.ExportarSistemaType ..> fsiap2dkg3.model.Sistema
fsiap2dkg3.importar.sistema.ImportarSistemaType ..> fsiap2dkg3.exception.ImportarException
@enduml